simulation/qsim/TEST_9.msim.vcd
$comment
	File created using the following command:
		vcd file TEST_9.msim.vcd -direction
$end
$date
	Thu Jan 13 18:52:48 2022
$end
$version
	ModelSim Version 10.5b
$end
$timescale
	1ps
$end

$scope module sample_vhd_vec_tst $end
$var wire 1 ! button1 $end
$var wire 1 " button2 $end
$var wire 1 # button3 $end
$var wire 1 $ button4 $end
$var wire 1 % clk $end
$var wire 1 & dioda1 $end
$var wire 1 ' dioda2 $end
$var wire 1 ( dioda3 $end
$var wire 1 ) dioda4 $end
$var wire 1 * dioda5 $end
$var wire 1 + dioda6 $end
$var wire 1 , dioda7 $end
$var wire 1 - dioda8 $end
$var wire 1 . dioda9 $end
$var wire 1 / dioda10 $end
$var wire 1 0 Display_1 [3] $end
$var wire 1 1 Display_1 [2] $end
$var wire 1 2 Display_1 [1] $end
$var wire 1 3 Display_1 [0] $end
$var wire 1 4 Display_1_true [7] $end
$var wire 1 5 Display_1_true [6] $end
$var wire 1 6 Display_1_true [5] $end
$var wire 1 7 Display_1_true [4] $end
$var wire 1 8 Display_1_true [3] $end
$var wire 1 9 Display_1_true [2] $end
$var wire 1 : Display_1_true [1] $end
$var wire 1 ; Display_1_true [0] $end
$var wire 1 < Display_2 [7] $end
$var wire 1 = Display_2 [6] $end
$var wire 1 > Display_2 [5] $end
$var wire 1 ? Display_2 [4] $end
$var wire 1 @ Display_2 [3] $end
$var wire 1 A Display_2 [2] $end
$var wire 1 B Display_2 [1] $end
$var wire 1 C Display_2 [0] $end
$var wire 1 D Display_3 [3] $end
$var wire 1 E Display_3 [2] $end
$var wire 1 F Display_3 [1] $end
$var wire 1 G Display_3 [0] $end
$var wire 1 H Display_3_true [7] $end
$var wire 1 I Display_3_true [6] $end
$var wire 1 J Display_3_true [5] $end
$var wire 1 K Display_3_true [4] $end
$var wire 1 L Display_3_true [3] $end
$var wire 1 M Display_3_true [2] $end
$var wire 1 N Display_3_true [1] $end
$var wire 1 O Display_3_true [0] $end
$var wire 1 P Display_4 [7] $end
$var wire 1 Q Display_4 [6] $end
$var wire 1 R Display_4 [5] $end
$var wire 1 S Display_4 [4] $end
$var wire 1 T Display_4 [3] $end
$var wire 1 U Display_4 [2] $end
$var wire 1 V Display_4 [1] $end
$var wire 1 W Display_4 [0] $end
$var wire 1 X output [1] $end
$var wire 1 Y output [0] $end
$var wire 1 Z suwak1 $end
$var wire 1 [ suwak2 $end
$var wire 1 \ suwak3 $end
$var wire 1 ] suwak4 $end
$var wire 1 ^ suwak5 $end
$var wire 1 _ suwak6 $end
$var wire 1 ` suwak7 $end
$var wire 1 a suwak8 $end
$var wire 1 b suwak9 $end
$var wire 1 c suwak10 $end

$scope module i1 $end
$var wire 1 d gnd $end
$var wire 1 e vcc $end
$var wire 1 f unknown $end
$var wire 1 g devoe $end
$var wire 1 h devclrn $end
$var wire 1 i devpor $end
$var wire 1 j ww_devoe $end
$var wire 1 k ww_devclrn $end
$var wire 1 l ww_devpor $end
$var wire 1 m ww_clk $end
$var wire 1 n ww_button1 $end
$var wire 1 o ww_button2 $end
$var wire 1 p ww_button3 $end
$var wire 1 q ww_button4 $end
$var wire 1 r ww_suwak1 $end
$var wire 1 s ww_suwak2 $end
$var wire 1 t ww_suwak3 $end
$var wire 1 u ww_suwak4 $end
$var wire 1 v ww_dioda1 $end
$var wire 1 w ww_dioda2 $end
$var wire 1 x ww_dioda3 $end
$var wire 1 y ww_dioda4 $end
$var wire 1 z ww_suwak5 $end
$var wire 1 { ww_suwak6 $end
$var wire 1 | ww_suwak7 $end
$var wire 1 } ww_suwak8 $end
$var wire 1 ~ ww_suwak9 $end
$var wire 1 !! ww_suwak10 $end
$var wire 1 "! ww_dioda5 $end
$var wire 1 #! ww_dioda6 $end
$var wire 1 $! ww_dioda7 $end
$var wire 1 %! ww_dioda8 $end
$var wire 1 &! ww_dioda9 $end
$var wire 1 '! ww_dioda10 $end
$var wire 1 (! ww_Display_1 [3] $end
$var wire 1 )! ww_Display_1 [2] $end
$var wire 1 *! ww_Display_1 [1] $end
$var wire 1 +! ww_Display_1 [0] $end
$var wire 1 ,! ww_Display_2 [7] $end
$var wire 1 -! ww_Display_2 [6] $end
$var wire 1 .! ww_Display_2 [5] $end
$var wire 1 /! ww_Display_2 [4] $end
$var wire 1 0! ww_Display_2 [3] $end
$var wire 1 1! ww_Display_2 [2] $end
$var wire 1 2! ww_Display_2 [1] $end
$var wire 1 3! ww_Display_2 [0] $end
$var wire 1 4! ww_Display_3 [3] $end
$var wire 1 5! ww_Display_3 [2] $end
$var wire 1 6! ww_Display_3 [1] $end
$var wire 1 7! ww_Display_3 [0] $end
$var wire 1 8! ww_Display_4 [7] $end
$var wire 1 9! ww_Display_4 [6] $end
$var wire 1 :! ww_Display_4 [5] $end
$var wire 1 ;! ww_Display_4 [4] $end
$var wire 1 <! ww_Display_4 [3] $end
$var wire 1 =! ww_Display_4 [2] $end
$var wire 1 >! ww_Display_4 [1] $end
$var wire 1 ?! ww_Display_4 [0] $end
$var wire 1 @! ww_Display_1_true [7] $end
$var wire 1 A! ww_Display_1_true [6] $end
$var wire 1 B! ww_Display_1_true [5] $end
$var wire 1 C! ww_Display_1_true [4] $end
$var wire 1 D! ww_Display_1_true [3] $end
$var wire 1 E! ww_Display_1_true [2] $end
$var wire 1 F! ww_Display_1_true [1] $end
$var wire 1 G! ww_Display_1_true [0] $end
$var wire 1 H! ww_Display_3_true [7] $end
$var wire 1 I! ww_Display_3_true [6] $end
$var wire 1 J! ww_Display_3_true [5] $end
$var wire 1 K! ww_Display_3_true [4] $end
$var wire 1 L! ww_Display_3_true [3] $end
$var wire 1 M! ww_Display_3_true [2] $end
$var wire 1 N! ww_Display_3_true [1] $end
$var wire 1 O! ww_Display_3_true [0] $end
$var wire 1 P! ww_output [1] $end
$var wire 1 Q! ww_output [0] $end
$var wire 1 R! \~QUARTUS_CREATED_GND~I_combout\ $end
$var wire 1 S! \suwak1~input_o\ $end
$var wire 1 T! \suwak2~input_o\ $end
$var wire 1 U! \suwak3~input_o\ $end
$var wire 1 V! \suwak4~input_o\ $end
$var wire 1 W! \suwak5~input_o\ $end
$var wire 1 X! \suwak6~input_o\ $end
$var wire 1 Y! \suwak7~input_o\ $end
$var wire 1 Z! \suwak8~input_o\ $end
$var wire 1 [! \suwak9~input_o\ $end
$var wire 1 \! \suwak10~input_o\ $end
$var wire 1 ]! \clk~input_o\ $end
$var wire 1 ^! \clk~inputCLKENA0_outclk\ $end
$var wire 1 _! \button2~input_o\ $end
$var wire 1 `! \button2_r[0]~feeder_combout\ $end
$var wire 1 a! \Equal2~0_combout\ $end
$var wire 1 b! \button1~input_o\ $end
$var wire 1 c! \Equal0~0_combout\ $end
$var wire 1 d! \button4~input_o\ $end
$var wire 1 e! \button4~inputCLKENA0_outclk\ $end
$var wire 1 f! \sigDEncryption~0_combout\ $end
$var wire 1 g! \output_i~5_combout\ $end
$var wire 1 h! \button3~input_o\ $end
$var wire 1 i! \button3_r[1]~feeder_combout\ $end
$var wire 1 j! \button4_r[0]~feeder_combout\ $end
$var wire 1 k! \output_i[0]~1_combout\ $end
$var wire 1 l! \sigDEncryption~1_combout\ $end
$var wire 1 m! \output_i~4_combout\ $end
$var wire 1 n! \Add0~0_combout\ $end
$var wire 1 o! \sigDEncryption~2_combout\ $end
$var wire 1 p! \output_i~2_combout\ $end
$var wire 1 q! \output_i[0]~0_combout\ $end
$var wire 1 r! \sigDEncryption~3_combout\ $end
$var wire 1 s! \output_i~3_combout\ $end
$var wire 1 t! \button3~inputCLKENA0_outclk\ $end
$var wire 1 u! \Currstate~0_combout\ $end
$var wire 1 v! \Mux20~0_combout\ $end
$var wire 1 w! \feedback~q\ $end
$var wire 1 x! \Currstate~1_combout\ $end
$var wire 1 y! \sigDisplay2[1]~DUPLICATE_q\ $end
$var wire 1 z! \output_display_2[1]~0_combout\ $end
$var wire 1 {! \output_display_2[1]~1_combout\ $end
$var wire 1 |! \output_display_2[1]~2_combout\ $end
$var wire 1 }! \Mux14~0_combout\ $end
$var wire 1 ~! \output_display_2[2]~feeder_combout\ $end
$var wire 1 !" \sigDisplay2[3]~1_combout\ $end
$var wire 1 "" \Mux15~0_combout\ $end
$var wire 1 #" \Mux14~1_combout\ $end
$var wire 1 $" \sigDisplay2[6]~feeder_combout\ $end
$var wire 1 %" \sigEncryption~0_combout\ $end
$var wire 1 &" \sigEncryption~1_combout\ $end
$var wire 1 '" \sigEncryption~2_combout\ $end
$var wire 1 (" \sigEncryption~3_combout\ $end
$var wire 1 )" \output_display_4[1]~0_combout\ $end
$var wire 1 *" \Mux13~0_combout\ $end
$var wire 1 +" \Mux12~0_combout\ $end
$var wire 1 ," \Mux11~0_combout\ $end
$var wire 1 -" \Mux10~0_combout\ $end
$var wire 1 ." \Mux9~0_combout\ $end
$var wire 1 /" \Mux8~0_combout\ $end
$var wire 1 0" \Mux7~0_combout\ $end
$var wire 1 1" \Mux6~0_combout\ $end
$var wire 1 2" \Mux5~0_combout\ $end
$var wire 1 3" \Mux4~0_combout\ $end
$var wire 1 4" \Mux3~0_combout\ $end
$var wire 1 5" \Mux2~0_combout\ $end
$var wire 1 6" \Mux1~0_combout\ $end
$var wire 1 7" \Mux0~0_combout\ $end
$var wire 1 8" \output[0]~reg0_q\ $end
$var wire 1 9" \output[1]~reg0_q\ $end
$var wire 1 :" output_display_2 [7] $end
$var wire 1 ;" output_display_2 [6] $end
$var wire 1 <" output_display_2 [5] $end
$var wire 1 =" output_display_2 [4] $end
$var wire 1 >" output_display_2 [3] $end
$var wire 1 ?" output_display_2 [2] $end
$var wire 1 @" output_display_2 [1] $end
$var wire 1 A" output_display_2 [0] $end
$var wire 1 B" output_display_3 [3] $end
$var wire 1 C" output_display_3 [2] $end
$var wire 1 D" output_display_3 [1] $end
$var wire 1 E" output_display_3 [0] $end
$var wire 1 F" output_i [3] $end
$var wire 1 G" output_i [2] $end
$var wire 1 H" output_i [1] $end
$var wire 1 I" output_i [0] $end
$var wire 1 J" output_display_4 [7] $end
$var wire 1 K" output_display_4 [6] $end
$var wire 1 L" output_display_4 [5] $end
$var wire 1 M" output_display_4 [4] $end
$var wire 1 N" output_display_4 [3] $end
$var wire 1 O" output_display_4 [2] $end
$var wire 1 P" output_display_4 [1] $end
$var wire 1 Q" output_display_4 [0] $end
$var wire 1 R" sigDEncryption [3] $end
$var wire 1 S" sigDEncryption [2] $end
$var wire 1 T" sigDEncryption [1] $end
$var wire 1 U" sigDEncryption [0] $end
$var wire 1 V" button1_r [2] $end
$var wire 1 W" button1_r [1] $end
$var wire 1 X" button1_r [0] $end
$var wire 1 Y" button2_r [2] $end
$var wire 1 Z" button2_r [1] $end
$var wire 1 [" button2_r [0] $end
$var wire 1 \" button3_r [2] $end
$var wire 1 ]" button3_r [1] $end
$var wire 1 ^" button3_r [0] $end
$var wire 1 _" button4_r [2] $end
$var wire 1 `" button4_r [1] $end
$var wire 1 a" button4_r [0] $end
$var wire 1 b" sigDisplay2 [7] $end
$var wire 1 c" sigDisplay2 [6] $end
$var wire 1 d" sigDisplay2 [5] $end
$var wire 1 e" sigDisplay2 [4] $end
$var wire 1 f" sigDisplay2 [3] $end
$var wire 1 g" sigDisplay2 [2] $end
$var wire 1 h" sigDisplay2 [1] $end
$var wire 1 i" sigDisplay2 [0] $end
$var wire 1 j" sigEncryption [3] $end
$var wire 1 k" sigEncryption [2] $end
$var wire 1 l" sigEncryption [1] $end
$var wire 1 m" sigEncryption [0] $end
$var wire 1 n" Currstate [1] $end
$var wire 1 o" Currstate [0] $end
$var wire 1 p" Nextstate [1] $end
$var wire 1 q" Nextstate [0] $end
$var wire 1 r" \ALT_INV_suwak1~input_o\ $end
$var wire 1 s" ALT_INV_Nextstate [1] $end
$var wire 1 t" ALT_INV_button3_r [2] $end
$var wire 1 u" ALT_INV_button3_r [1] $end
$var wire 1 v" ALT_INV_button3_r [0] $end
$var wire 1 w" ALT_INV_Currstate [1] $end
$var wire 1 x" ALT_INV_Currstate [0] $end
$var wire 1 y" ALT_INV_sigDisplay2 [2] $end
$var wire 1 z" ALT_INV_sigDisplay2 [1] $end
$var wire 1 {" \ALT_INV_output_display_2[1]~1_combout\ $end
$var wire 1 |" \ALT_INV_output_display_2[1]~0_combout\ $end
$var wire 1 }" ALT_INV_sigDEncryption [3] $end
$var wire 1 ~" ALT_INV_sigDEncryption [2] $end
$var wire 1 !# ALT_INV_sigDEncryption [1] $end
$var wire 1 "# ALT_INV_sigDEncryption [0] $end
$var wire 1 ## \ALT_INV_Add0~0_combout\ $end
$var wire 1 $# ALT_INV_button4_r [2] $end
$var wire 1 %# ALT_INV_button4_r [1] $end
$var wire 1 &# \ALT_INV_Equal2~0_combout\ $end
$var wire 1 '# ALT_INV_button2_r [2] $end
$var wire 1 (# ALT_INV_button2_r [1] $end
$var wire 1 )# \ALT_INV_output_i[0]~0_combout\ $end
$var wire 1 *# \ALT_INV_Equal0~0_combout\ $end
$var wire 1 +# ALT_INV_button1_r [2] $end
$var wire 1 ,# ALT_INV_button1_r [1] $end
$var wire 1 -# \ALT_INV_Mux0~0_combout\ $end
$var wire 1 .# \ALT_INV_Mux1~0_combout\ $end
$var wire 1 /# \ALT_INV_Mux2~0_combout\ $end
$var wire 1 0# \ALT_INV_Mux3~0_combout\ $end
$var wire 1 1# \ALT_INV_Mux4~0_combout\ $end
$var wire 1 2# \ALT_INV_Mux5~0_combout\ $end
$var wire 1 3# \ALT_INV_Mux7~0_combout\ $end
$var wire 1 4# \ALT_INV_Mux8~0_combout\ $end
$var wire 1 5# \ALT_INV_Mux9~0_combout\ $end
$var wire 1 6# \ALT_INV_Mux10~0_combout\ $end
$var wire 1 7# \ALT_INV_Mux11~0_combout\ $end
$var wire 1 8# \ALT_INV_Mux12~0_combout\ $end
$var wire 1 9# ALT_INV_output_i [3] $end
$var wire 1 :# ALT_INV_output_i [2] $end
$var wire 1 ;# ALT_INV_output_i [1] $end
$var wire 1 <# ALT_INV_output_i [0] $end
$var wire 1 =# ALT_INV_output_display_3 [3] $end
$var wire 1 ># ALT_INV_output_display_3 [2] $end
$var wire 1 ?# ALT_INV_output_display_3 [1] $end
$var wire 1 @# ALT_INV_output_display_3 [0] $end
$var wire 1 A# \ALT_INV_button2~input_o\ $end
$var wire 1 B# \ALT_INV_button1~input_o\ $end
$var wire 1 C# \ALT_INV_button4~input_o\ $end
$var wire 1 D# \ALT_INV_suwak10~input_o\ $end
$var wire 1 E# \ALT_INV_suwak9~input_o\ $end
$var wire 1 F# \ALT_INV_suwak8~input_o\ $end
$var wire 1 G# \ALT_INV_suwak7~input_o\ $end
$var wire 1 H# \ALT_INV_suwak6~input_o\ $end
$var wire 1 I# \ALT_INV_suwak5~input_o\ $end
$var wire 1 J# \ALT_INV_suwak4~input_o\ $end
$var wire 1 K# \ALT_INV_suwak3~input_o\ $end
$var wire 1 L# \ALT_INV_suwak2~input_o\ $end
$upscope $end
$upscope $end
$enddefinitions $end
#0
$dumpvars
0!
0"
0#
0$
0%
1&
0'
1(
0)
0*
0+
0,
0-
0.
0/
1Z
0[
1\
0]
0^
0_
0`
0a
0b
0c
0d
1e
xf
1g
1h
1i
1j
1k
1l
0m
0n
0o
0p
0q
1r
0s
1t
0u
1v
0w
1x
0y
0z
0{
0|
0}
0~
0!!
0"!
0#!
0$!
0%!
0&!
0'!
xR!
1S!
0T!
1U!
0V!
0W!
0X!
0Y!
0Z!
0[!
0\!
0]!
0^!
0_!
0`!
1a!
0b!
0c!
0d!
0e!
1f!
0g!
0h!
0i!
0j!
0k!
0l!
0m!
0n!
1o!
0p!
0q!
0r!
0s!
0t!
0u!
0v!
0w!
0x!
0y!
1z!
1{!
0|!
1}!
0~!
1!"
1""
1#"
1$"
1%"
0&"
1'"
0("
0)"
0*"
0+"
0,"
0-"
0."
0/"
00"
01"
02"
03"
04"
05"
06"
07"
08"
09"
0r"
0{"
0|"
1##
0&#
1)#
1*#
1-#
1.#
1/#
10#
11#
12#
13#
14#
15#
16#
17#
18#
1A#
1B#
1C#
1D#
1E#
1F#
1G#
1H#
1I#
1J#
0K#
1L#
0(!
0)!
0*!
0+!
0,!
0-!
0.!
0/!
00!
01!
02!
03!
04!
05!
06!
07!
08!
09!
0:!
0;!
0<!
0=!
0>!
0?!
1@!
1A!
1B!
1C!
1D!
1E!
0F!
0G!
1H!
1I!
1J!
1K!
1L!
1M!
0N!
0O!
0P!
0Q!
x:"
0;"
0<"
0="
0>"
0?"
0@"
xA"
0B"
0C"
0D"
0E"
0F"
0G"
0H"
0I"
xJ"
xK"
xL"
0M"
xN"
0O"
0P"
xQ"
0R"
0S"
0T"
0U"
0V"
0W"
0X"
0Y"
0Z"
0["
0\"
0]"
0^"
0_"
0`"
0a"
xb"
0c"
0d"
0e"
0f"
0g"
0h"
xi"
0j"
0k"
0l"
0m"
0n"
0o"
0p"
xq"
1s"
1t"
1u"
1v"
1w"
1x"
1y"
1z"
1}"
1~"
1!#
1"#
1$#
1%#
1'#
1(#
1+#
1,#
19#
1:#
1;#
1<#
1=#
1>#
1?#
1@#
00
01
02
03
14
15
16
17
18
19
0:
0;
0<
0=
0>
0?
0@
0A
0B
0C
0D
0E
0F
0G
1H
1I
1J
1K
1L
1M
0N
0O
0P
0Q
0R
0S
0T
0U
0V
0W
0X
0Y
$end
#1000
1%
1m
1]!
1^!
#2000
0%
0m
0]!
0^!
#3000
1%
1m
1]!
1^!
#4000
0%
0m
0]!
0^!
#5000
1%
1m
1]!
1^!
#6000
0%
0m
0]!
0^!
#7000
1%
1m
1]!
1^!
#8000
0%
0m
0]!
0^!
#9000
1%
1m
1]!
1^!
#10000
0%
0m
0]!
0^!
#11000
1%
1m
1]!
1^!
#12000
0%
0m
0]!
0^!
#13000
1%
1m
1]!
1^!
#14000
0%
0m
0]!
0^!
#15000
1%
1m
1]!
1^!
#16000
0%
0m
0]!
0^!
#17000
1%
1m
1]!
1^!
#18000
0%
0m
0]!
0^!
#19000
1%
1m
1]!
1^!
#20000
0%
1!
0m
1n
1b!
0]!
0^!
0B#
1u!
#21000
1%
1m
1]!
1^!
1X"
#22000
0%
0m
0]!
0^!
#23000
1%
1m
1]!
1^!
1W"
0,#
1c!
0*#
1g!
1k!
#24000
0%
0m
0]!
0^!
#25000
1%
1m
1]!
1^!
1V"
1I"
0<#
0+#
0c!
0g!
1m!
0%"
1+"
1,"
1-"
10"
03#
06#
07#
08#
1*#
1+!
0k!
0m!
13
0E!
0D!
0C!
0@!
09
08
07
04
#26000
0%
0m
0]!
0^!
#27000
1%
1m
1]!
1^!
#28000
0%
0m
0]!
0^!
#29000
1%
1m
1]!
1^!
#30000
0%
0m
0]!
0^!
#31000
1%
1m
1]!
1^!
#32000
0%
0m
0]!
0^!
#33000
1%
1m
1]!
1^!
#34000
0%
0m
0]!
0^!
#35000
1%
1m
1]!
1^!
#36000
0%
0m
0]!
0^!
#37000
1%
1m
1]!
1^!
#38000
0%
0m
0]!
0^!
#39000
1%
1m
1]!
1^!
#40000
0%
0!
0m
0n
0b!
0]!
0^!
1B#
0u!
#41000
1%
1m
1]!
1^!
0X"
#42000
0%
0m
0]!
0^!
#43000
1%
1m
1]!
1^!
0W"
1,#
#44000
0%
0m
0]!
0^!
#45000
1%
1m
1]!
1^!
0V"
1+#
#46000
0%
0m
0]!
0^!
#47000
1%
1m
1]!
1^!
#48000
0%
0m
0]!
0^!
#49000
1%
1m
1]!
1^!
#50000
0%
1#
0m
1p
1h!
0]!
0^!
1t!
1g"
1f"
1e"
1d"
1c"
1k"
0y"
1~!
#51000
1%
1m
1]!
1^!
1^"
0v"
1i!
#52000
0%
0m
0]!
0^!
#53000
1%
1m
1]!
1^!
1]"
0u"
0z!
0{!
1{"
1|"
1)"
1|!
#54000
0%
0m
0]!
0^!
#55000
1%
1m
1]!
1^!
1\"
1?"
1>"
1="
1<"
1;"
1C"
1P"
1O"
0>#
0t"
1z!
1{!
11"
13"
14"
17"
0-#
00#
01#
0{"
0|"
1=!
1<!
1>!
1:!
19!
15!
1-!
1.!
1/!
1,!
10!
11!
0)"
0|!
1V
1U
1T
1R
1Q
1E
1A
1@
1?
1>
1=
1<
1N!
0L!
0K!
0H!
1N
0L
0K
0H
#56000
0%
0m
0]!
0^!
#57000
1%
1m
1]!
1^!
#58000
0%
0m
0]!
0^!
#59000
1%
1m
1]!
1^!
#60000
0%
1!
0m
1n
1b!
0]!
0^!
0B#
1u!
#61000
1%
1m
1]!
1^!
1X"
#62000
0%
0m
0]!
0^!
#63000
1%
1m
1]!
1^!
1W"
0,#
1c!
0*#
1k!
1m!
#64000
0%
0m
0]!
0^!
#65000
1%
1m
1]!
1^!
1V"
0I"
1H"
0;#
1<#
0+#
0c!
1g!
1%"
1&"
1*"
0,"
0-"
1."
00"
13#
05#
16#
17#
1*#
1*!
0+!
0g!
0k!
0m!
03
12
1F!
1D!
1C!
0B!
1@!
1:
18
17
06
14
#66000
0%
0m
0]!
0^!
#67000
1%
1m
1]!
1^!
#68000
0%
0m
0]!
0^!
#69000
1%
1m
1]!
1^!
#70000
0%
0m
0]!
0^!
#71000
1%
1m
1]!
1^!
#72000
0%
0m
0]!
0^!
#73000
1%
1m
1]!
1^!
#74000
0%
0m
0]!
0^!
#75000
1%
1m
1]!
1^!
#76000
0%
0m
0]!
0^!
#77000
1%
1m
1]!
1^!
#78000
0%
0m
0]!
0^!
#79000
1%
1m
1]!
1^!
#80000
0%
0!
0m
0n
0b!
0]!
0^!
1B#
0u!
#81000
1%
1m
1]!
1^!
0X"
#82000
0%
0m
0]!
0^!
#83000
1%
1m
1]!
1^!
0W"
1,#
#84000
0%
0m
0]!
0^!
#85000
1%
1m
1]!
1^!
0V"
1+#
#86000
0%
0m
0]!
0^!
#87000
1%
1m
1]!
1^!
#88000
0%
0m
0]!
0^!
#89000
1%
1m
1]!
1^!
#90000
0%
0m
0]!
0^!
#91000
1%
1m
1]!
1^!
#92000
0%
0m
0]!
0^!
#93000
1%
1m
1]!
1^!
#94000
0%
0m
0]!
0^!
#95000
1%
1m
1]!
1^!
#96000
0%
0m
0]!
0^!
#97000
1%
1m
1]!
1^!
#98000
0%
0m
0]!
0^!
#99000
1%
1m
1]!
1^!
#100000
0%
1!
0#
0m
1n
0p
0h!
1b!
0]!
0^!
0t!
0B#
1u!
#101000
1%
1m
1]!
1^!
1X"
0^"
1v"
0i!
#102000
0%
0m
0]!
0^!
#103000
1%
1m
1]!
1^!
1W"
0]"
1u"
0,#
1c!
0*#
1g!
1k!
1m!
#104000
0%
0m
0]!
0^!
#105000
1%
1m
1]!
1^!
1V"
0\"
1I"
0<#
1t"
0+#
0c!
0g!
0m!
1n!
0%"
1,"
0."
15#
07#
0##
1*#
1+!
0k!
13
0D!
1B!
08
16
#106000
0%
0m
0]!
0^!
#107000
1%
1m
1]!
1^!
#108000
0%
0m
0]!
0^!
#109000
1%
1m
1]!
1^!
#110000
0%
0m
0]!
0^!
#111000
1%
1m
1]!
1^!
#112000
0%
0m
0]!
0^!
#113000
1%
1m
1]!
1^!
#114000
0%
0m
0]!
0^!
#115000
1%
1m
1]!
1^!
#116000
0%
0m
0]!
0^!
#117000
1%
1m
1]!
1^!
#118000
0%
0m
0]!
0^!
#119000
1%
1m
1]!
1^!
#120000
0%
0!
0m
0n
0b!
0]!
0^!
1B#
0u!
#121000
1%
1m
1]!
1^!
0X"
#122000
0%
0m
0]!
0^!
#123000
1%
1m
1]!
1^!
0W"
1,#
#124000
0%
0m
0]!
0^!
#125000
1%
1m
1]!
1^!
0V"
1+#
#126000
0%
0m
0]!
0^!
#127000
1%
1m
1]!
1^!
#128000
0%
0m
0]!
0^!
#129000
1%
1m
1]!
1^!
#130000
0%
0m
0]!
0^!
#131000
1%
1m
1]!
1^!
#132000
0%
0m
0]!
0^!
#133000
1%
1m
1]!
1^!
#134000
0%
0m
0]!
0^!
#135000
1%
1m
1]!
1^!
#136000
0%
0m
0]!
0^!
#137000
1%
1m
1]!
1^!
#138000
0%
0m
0]!
0^!
#139000
1%
1m
1]!
1^!
#140000
0%
1!
0m
1n
1b!
0]!
0^!
0B#
1u!
#141000
1%
1m
1]!
1^!
1X"
#142000
0%
0m
0]!
0^!
#143000
1%
1m
1]!
1^!
1W"
0,#
1c!
0*#
1k!
1p!
#144000
0%
0m
0]!
0^!
#145000
1%
1m
1]!
1^!
1V"
0I"
0H"
1G"
0:#
1;#
1<#
0+#
0c!
1g!
1%"
0n!
0&"
0p!
0'"
0+"
1-"
10"
03#
06#
18#
1##
1*#
1)!
0*!
0+!
0g!
0k!
03
02
11
1E!
0C!
0@!
19
07
04
#146000
0%
0m
0]!
0^!
#147000
1%
1m
1]!
1^!
#148000
0%
0m
0]!
0^!
#149000
1%
1m
1]!
1^!
#150000
0%
1#
0m
1p
1h!
0]!
0^!
1t!
1o"
1m"
0k"
0x"
1v!
0}!
0!"
0""
0%"
1&"
1'"
1("
#151000
1%
1m
1]!
1^!
1^"
0v"
1i!
#152000
0%
0m
0]!
0^!
#153000
1%
1m
1]!
1^!
1]"
0u"
0z!
0{!
1{"
1|"
1)"
1|!
#154000
0%
0m
0]!
0^!
#155000
1%
1m
1]!
1^!
1\"
1E"
0C"
1>#
0@#
0t"
1z!
1{!
01"
12"
02#
0{"
0|"
05!
17!
0)"
0|!
1G
0E
0N!
0M!
0N
0M
#156000
0%
0m
0]!
0^!
#157000
1%
1m
1]!
1^!
#158000
0%
0m
0]!
0^!
#159000
1%
1m
1]!
1^!
#160000
0%
0!
0m
0n
0b!
0]!
0^!
1B#
0u!
#161000
1%
1m
1]!
1^!
0X"
#162000
0%
0m
0]!
0^!
#163000
1%
1m
1]!
1^!
0W"
1,#
#164000
0%
0m
0]!
0^!
#165000
1%
1m
1]!
1^!
0V"
1+#
#166000
0%
0m
0]!
0^!
#167000
1%
1m
1]!
1^!
#168000
0%
0m
0]!
0^!
#169000
1%
1m
1]!
1^!
#170000
0%
0m
0]!
0^!
#171000
1%
1m
1]!
1^!
#172000
0%
0m
0]!
0^!
#173000
1%
1m
1]!
1^!
#174000
0%
0m
0]!
0^!
#175000
1%
1m
1]!
1^!
#176000
0%
0m
0]!
0^!
#177000
1%
1m
1]!
1^!
#178000
0%
0m
0]!
0^!
#179000
1%
1m
1]!
1^!
#180000
0%
1!
0m
1n
1b!
0]!
0^!
0B#
1u!
#181000
1%
1m
1]!
1^!
1X"
#182000
0%
0m
0]!
0^!
#183000
1%
1m
1]!
1^!
1W"
0,#
1c!
0*#
1g!
1k!
1p!
#184000
0%
0m
0]!
0^!
#185000
1%
1m
1]!
1^!
1V"
1I"
0<#
0+#
0c!
0g!
1m!
1%"
0-"
1/"
00"
13#
04#
16#
1*#
1+!
0k!
0m!
0p!
13
1C!
0A!
1@!
17
05
14
#186000
0%
0m
0]!
0^!
#187000
1%
1m
1]!
1^!
#188000
0%
0m
0]!
0^!
#189000
1%
1m
1]!
1^!
#190000
0%
0m
0]!
0^!
#191000
1%
1m
1]!
1^!
#192000
0%
0m
0]!
0^!
#193000
1%
1m
1]!
1^!
#194000
0%
0m
0]!
0^!
#195000
1%
1m
1]!
1^!
#196000
0%
0m
0]!
0^!
#197000
1%
1m
1]!
1^!
#198000
0%
0m
0]!
0^!
#199000
1%
1m
1]!
1^!
#200000
0%
0!
0#
0m
0n
0p
0h!
0b!
0]!
0^!
0t!
1B#
0u!
#201000
1%
1m
1]!
1^!
0X"
0^"
1v"
0i!
#202000
0%
0m
0]!
0^!
#203000
1%
1m
1]!
1^!
0W"
0]"
1u"
1,#
#204000
0%
0m
0]!
0^!
#205000
1%
1m
1]!
1^!
0V"
0\"
1t"
1+#
#206000
0%
0m
0]!
0^!
#207000
1%
1m
1]!
1^!
#208000
0%
0m
0]!
0^!
#209000
1%
1m
1]!
1^!
#210000
0%
0m
0]!
0^!
#211000
1%
1m
1]!
1^!
#212000
0%
0m
0]!
0^!
#213000
1%
1m
1]!
1^!
#214000
0%
0m
0]!
0^!
#215000
1%
1m
1]!
1^!
#216000
0%
0m
0]!
0^!
#217000
1%
1m
1]!
1^!
#218000
0%
0m
0]!
0^!
#219000
1%
1m
1]!
1^!
#220000
0%
1!
0m
1n
1b!
0]!
0^!
0B#
1u!
#221000
1%
1m
1]!
1^!
1X"
#222000
0%
0m
0]!
0^!
#223000
1%
1m
1]!
1^!
1W"
0,#
1c!
0*#
1k!
1m!
1p!
#224000
0%
0m
0]!
0^!
#225000
1%
1m
1]!
1^!
1V"
0I"
1H"
0;#
1<#
0+#
0c!
1g!
0%"
0&"
0,"
17#
1*#
1*!
0+!
0g!
0k!
0m!
0p!
03
12
1D!
18
#226000
0%
0m
0]!
0^!
#227000
1%
1m
1]!
1^!
#228000
0%
0m
0]!
0^!
#229000
1%
1m
1]!
1^!
#230000
0%
0m
0]!
0^!
#231000
1%
1m
1]!
1^!
#232000
0%
0m
0]!
0^!
#233000
1%
1m
1]!
1^!
#234000
0%
0m
0]!
0^!
#235000
1%
1m
1]!
1^!
#236000
0%
0m
0]!
0^!
#237000
1%
1m
1]!
1^!
#238000
0%
0m
0]!
0^!
#239000
1%
1m
1]!
1^!
#240000
0%
0!
0m
0n
0b!
0]!
0^!
1B#
0u!
#241000
1%
1m
1]!
1^!
0X"
#242000
0%
0m
0]!
0^!
#243000
1%
1m
1]!
1^!
0W"
1,#
#244000
0%
0m
0]!
0^!
#245000
1%
1m
1]!
1^!
0V"
1+#
#246000
0%
0m
0]!
0^!
#247000
1%
1m
1]!
1^!
#248000
0%
0m
0]!
0^!
#249000
1%
1m
1]!
1^!
